[
  {
    "id": -1,
    "statistics": {
      "attack": 6,
      "defence": 5
    },
    "abilities": [
      1
    ],
    "cost": {
      "neutral": 0,
      "raiders": 0,
      "scanners": 0,
      "whiteHats": 0,
      "psychotronnics": 0
    },
    "description": "`Zawsze czujny`",
    "name": "Zarządca centrali",
    "type": "Unit",
    "class": "Haker",
    "subclass": "Kawaleria"
  },
  {
    "id": 1,
    "activatedAbilities": [
      {
        "id": 1,
        "description": "Zdobądź punkt mocy obliczeniowej szkoły Raiderów.",
        "cost": {
          "neutral": 0,
          "raiders": 0,
          "scanners": 0,
          "whiteHats": 0,
          "psychotronnics": 0,
          "overload": 1
        }
      }
    ],
    "description": "",
    "name": "Łącze szkoły Raiderów",
    "type": "Link",
    "subtype": "Basic"
  },
  {
    "id": 2,
    "activatedAbilities": [
      {
        "id": 1,
        "description": "Zdobądź punkt mocy obliczeniowej szkoły Skanerów.",
        "cost": {
          "neutral": 0,
          "raiders": 0,
          "scanners": 0,
          "whiteHats": 0,
          "psychotronnics": 0,
          "overload": 1
        }
      }
    ],
    "description": "",
    "name": "Łącze szkoły Skanerów",
    "type": "Link",
    "subtype": "Basic"
  },
  {
    "id": 3,
    "activatedAbilities": [
      {
        "id": 1,
        "description": "Zdobądź punkt mocy obliczeniowej szkoły White Hat’s.",
        "cost": {
          "neutral": 0,
          "raiders": 0,
          "scanners": 0,
          "whiteHats": 0,
          "psychotronnics": 0,
          "overload": 1
        }
      }
    ],
    "description": "",
    "name": "Łącze szkoły White Hat’s",
    "type": "Link",
    "subtype": "Basic"
  },
  {
    "id": 4,
    "activatedAbilities": [
      {
        "id": 1,
        "description": "Zdobądź punkt mocy obliczeniowej szkoły Psychotroników.",
        "cost": {
          "neutral": 0,
          "raiders": 0,
          "scanners": 0,
          "whiteHats": 0,
          "psychotronnics": 0,
          "overload": 1
        }
      }
    ],
    "description": "",
    "name": "Łącze szkoły Psychotroników",
    "type": "Link",
    "subtype": "Basic"
  },
  {
    "id": 5,
    "statistics": {
      "attack": 2,
      "defence": 1
    },
    "abilities": [
      1
    ],
    "cost": {
      "neutral": 1,
      "raiders": 1,
      "scanners": 0,
      "whiteHats": 0,
      "psychotronnics": 0
    },
    "description": "`Zawsze czujny`",
    "name": "Husarz",
    "type": "Unit",
    "class": "AI",
    "subclass": "Prześladowca"
  },
  {
    "id": 6,
    "cost": {
      "neutral": 1,
      "raiders": 1,
      "scanners": 0,
      "whiteHats": 0,
      "psychotronnics": 0
    },
    "description": "Zadaj 3 punkty obrażeń jednostce, graczowi lub jednostce obliczeniowej",
    "name": "Meltdown",
    "type": "Script"
  },
  {
    "id": 7,
    "cost": {
      "neutral": 2,
      "raiders": 2,
      "scanners": 0,
      "whiteHats": 0,
      "psychotronnics": 0
    },
    "description": "Wszystkie twoje jednostki zyskują +2/+0 do końca tury.",
    "name": "Overclock",
    "type": "Operation"
  },
  {
    "id": 8,
    "cost": {
      "neutral": 1,
      "raiders": 2,
      "scanners": 0,
      "whiteHats": 0,
      "psychotronnics": 0
    },
    "description": "Wszystkie jednostki `Prześladowca` otrzymują +1/+0.",
    "name": "Sieć stalkerów",
    "type": "ServiceProgram"
  },
  {
    "id": 9,
    "statistics": {
      "attack": 5,
      "defence": 1
    },
    "abilities": [
      1,
      3
    ],
    "cost": {
      "neutral": 0,
      "raiders": 1,
      "scanners": 0,
      "whiteHats": 0,
      "psychotronnics": 0
    },
    "description": "`Zawsze czujny`\n`Materializacja kodu`\nNa koniec rundy zniszcz tę jednostkę.",
    "flavor": "SINOSU is not one shot unit",
    "name": "SINOSU",
    "type": "Unit",
    "class": "AI",
    "subclass": "Prześladowca"
  },
  {
    "id": 10,
    "statistics": {
      "attack": 1,
      "defence": 2
    },
    "abilities": [
      11
    ],
    "cost": {
      "neutral": 0,
      "raiders": 1,
      "scanners": 0,
      "whiteHats": 0,
      "psychotronnics": 0
    },
    "activatedAbilities": [
      {
        "id": 1,
        "description": "`Skan podatności`",
        "cost": {
          "neutral": 1,
          "raiders": 1,
          "scanners": 0,
          "whiteHats": 0,
          "psychotronnics": 0,
          "overload": 0
        }
      }
    ],
    "description": "",
    "name": "Script kiddie",
    "type": "Unit",
    "class": "Haker",
    "subclass": "Prześladowca"
  },
  {
    "id": 11,
    "statistics": {
      "attack": 1,
      "defence": 1
    },
    "cost": {
      "neutral": 0,
      "raiders": 1,
      "scanners": 0,
      "whiteHats": 0,
      "psychotronnics": 0
    },
    "activatedAbilities": [
      {
        "id": 1,
        "description": "Zadaj 1 punkt obrażeń wybranej jednostce, graczowi lub jednostce obliczeniowej",
        "cost": {
          "neutral": 1,
          "raiders": 1,
          "scanners": 0,
          "whiteHats": 0,
          "psychotronnics": 0,
          "overload": 0
        }
      }
    ],
    "description": "",
    "name": "Archer",
    "type": "Unit",
    "class": "Haker"
  },
  {
    "id": 12,
    "cost": {
      "neutral": 0,
      "raiders": 1,
      "scanners": 0,
      "whiteHats": 0,
      "psychotronnics": 0
    },
    "description": "Wybrana jednostka zyskuje +2/+0 do końca tury.",
    "name": "Foreground execution",
    "type": "Script"
  },
  {
    "id": 13,
    "abilities": [
      7
    ],
    "cost": {
      "neutral": 0,
      "raiders": 1,
      "scanners": 0,
      "whiteHats": 0,
      "psychotronnics": 0
    },
    "description": "`Zainstaluj` na jednostce\nJednostka otrzymuje +1/+1",
    "name": "Dodatkowy rdzeń",
    "type": "ServiceProgram"
  },
  {
    "id": 14,
    "statistics": {
      "attack": 7,
      "defence": 6
    },
    "abilities": [
      6,
      9
    ],
    "cost": {
      "neutral": 6,
      "raiders": 1,
      "scanners": 0,
      "whiteHats": 0,
      "psychotronnics": 0
    },
    "description": "`Atak segmentowy`\n`Ukryty potencjał 2` Flood master otrzymuje +2/+2",
    "name": "Flood master",
    "type": "Unit",
    "class": "Haker",
    "subclass": "Kawaleria"
  },
  {
    "id": 15,
    "cost": {
      "neutral": 4,
      "raiders": 1,
      "scanners": 0,
      "whiteHats": 0,
      "psychotronnics": 0
    },
    "description": "Wybierz do dwóch jednostek i zadaj im po 4 punkty obrażeń",
    "name": "Równoległy atak wektorowy",
    "type": "Operation"
  },
  {
    "id": 16,
    "cost": {
      "neutral": 2,
      "raiders": 1,
      "scanners": 0,
      "whiteHats": 0,
      "psychotronnics": 0
    },
    "description": "Wybierz jedno:\nzniszcz łącze\nzadaj 3 punty obrażeń jednostce\ndaj +1/+0 jednostce",
    "name": "Atak polimorficzny",
    "type": "Script"
  },
  {
    "id": 17,
    "statistics": {
      "attack": 1,
      "defence": 1
    },
    "cost": {
      "neutral": 1,
      "raiders": 1,
      "scanners": 0,
      "whiteHats": 0,
      "psychotronnics": 0
    },
    "activatedAbilities": [
      {
        "id": 1,
        "description": "Daj jednostce +2/+0",
        "cost": {
          "neutral": 0,
          "raiders": 0,
          "scanners": 0,
          "whiteHats": 0,
          "psychotronnics": 0,
          "overload": 1
        }
      }
    ],
    "description": "",
    "name": "Boost dealer",
    "type": "Unit",
    "class": "Haker"
  },
  {
    "id": 18,
    "activatedAbilities": [
      {
        "id": 1,
        "description": "Zdobądź punkt mocy obliczeniowej szkoły Raiderów.",
        "cost": {
          "neutral": 0,
          "raiders": 0,
          "scanners": 0,
          "whiteHats": 0,
          "psychotronnics": 0,
          "overload": 1
        }
      },
      {
        "id": 2,
        "description": "Zadaj 3 punkty obrażeń wybranej jednostce.",
        "cost": {
          "neutral": 1,
          "raiders": 2,
          "scanners": 0,
          "whiteHats": 0,
          "psychotronnics": 0,
          "overload": 1
        }
      }
    ],
    "description": "Ta karta wchodzi na pole bitwy z nałożonym 1 punktem przeciążenia systemu",
    "name": "Węzeł raiderów",
    "type": "Link"
  },
  {
    "id": 19,
    "activatedAbilities": [
      {
        "id": 1,
        "description": "Zdobądź punkt mocy obliczeniowej szkoły Raiderów.",
        "cost": {
          "neutral": 0,
          "raiders": 0,
          "scanners": 0,
          "whiteHats": 0,
          "psychotronnics": 0,
          "overload": 1
        }
      },
      {
        "id": 2,
        "description": "Stwórz Zarządce centrali. Możesz użyć tej umiejętności tylko raz.",
        "cost": {
          "neutral": 3,
          "raiders": 1,
          "scanners": 0,
          "whiteHats": 0,
          "psychotronnics": 0,
          "overload": 4
        }
      }
    ],
    "description": "Ta karta wchodzi na pole bitwy z nałożonymi 4 punktami przeciążenia systemu.",
    "name": "Centrala raiderów",
    "type": "Link",
    "subtype": "Legendary"
  },
  {
    "id": 20,
    "cost": {
      "neutral": 0,
      "raiders": 1,
      "scanners": 0,
      "whiteHats": 0,
      "psychotronnics": 0
    },
    "description": "Zadaj 1 punkt obrażeń wszystkim jednostkom na polu bitwy",
    "name": "Poszukiwanie luk",
    "type": "Operation"
  },
  {
    "id": 21,
    "cost": {
      "neutral": 1,
      "raiders": 2,
      "scanners": 0,
      "whiteHats": 0,
      "psychotronnics": 0
    },
    "description": "Przejmij kontrolę nad jednostką, która ma mniej niż 3 punkty ataku, do końca tury\nZdejmij z niej wszystkie punkty przeciążenia systemu",
    "name": "Przejęcie sygnału",
    "type": "Operation"
  },
  {
    "id": 22,
    "cost": {
      "neutral": 0,
      "raiders": 2,
      "scanners": 0,
      "whiteHats": 0,
      "psychotronnics": 0
    },
    "description": "Nadaj wybranej jednostce `Głębokie ukrycie`",
    "name": "Maskowanie",
    "type": "Operation"
  },
  {
    "id": 23,
    "abilities": [
      7
    ],
    "cost": {
      "neutral": 1,
      "raiders": 1,
      "scanners": 0,
      "whiteHats": 0,
      "psychotronnics": 0
    },
    "description": "`Zainstaluj` na `prześladowcy`\nJednostka otrzymuje +1/+0 i `Głębokie ukrycie`",
    "name": "Moduł maskujący",
    "type": "ServiceProgram"
  },
  {
    "id": 24,
    "statistics": {
      "attack": 9,
      "defence": 8
    },
    "abilities": [
      1,
      4
    ],
    "cost": {
      "neutral": 6,
      "raiders": 3,
      "scanners": 0,
      "whiteHats": 0,
      "psychotronnics": 0
    },
    "activatedAbilities": [
      {
        "id": 1,
        "description": "Zadaj 3 punkt obrażeń wybranej jednostce",
        "cost": {
          "neutral": 1,
          "raiders": 1,
          "scanners": 0,
          "whiteHats": 0,
          "psychotronnics": 0,
          "overload": 1
        }
      },
      {
        "id": 2,
        "description": "Zadaj 2 punkty obrażeń wszystkim jednostkom",
        "cost": {
          "neutral": 2,
          "raiders": 1,
          "scanners": 0,
          "whiteHats": 0,
          "psychotronnics": 0,
          "overload": 0
        }
      }
    ],
    "description": "`Zawsze czujny`\n`Atak prewencyjny`",
    "name": "David",
    "type": "Unit",
    "subtype": "Legendary",
    "class": "True AI"
  },
  {
    "id": 25,
    "cost": {
      "neutral": 1,
      "raiders": 1,
      "scanners": 0,
      "whiteHats": 0,
      "psychotronnics": 0
    },
    "description": "Daj wybranej jednostce `Atak prewencyjny`",
    "name": "Przyspieszenie czasu reakcji",
    "type": "Script"
  },
  {
    "id": 26,
    "cost": {
      "neutral": 1,
      "raiders": 1,
      "scanners": 0,
      "whiteHats": 0,
      "psychotronnics": 0
    },
    "description": "Twoja wybrana jednostka walczy z wybraną jednostką przeciwnika",
    "name": "Wymuszona interakcja",
    "type": "Script"
  },
  {
    "id": 27,
    "statistics": {
      "attack": 1,
      "defence": 1
    },
    "cost": {
      "neutral": 2,
      "raiders": 1,
      "scanners": 0,
      "whiteHats": 0,
      "psychotronnics": 0
    },
    "description": "Wszystkie jednostki `prześladowców` i `kawalerii` otrzymują +1/+1",
    "name": "Lider siatki",
    "type": "Unit",
    "class": "Wsparcie techniczne",
    "subclass": "Prześladowca"
  },
  {
    "id": 28,
    "cost": {
      "neutral": 7,
      "raiders": 2,
      "scanners": 0,
      "whiteHats": 0,
      "psychotronnics": 0
    },
    "description": "Przyzwij 3 jednostki, każda z nich jest losowo jedną z: Lider siatki, Zarządca centrali, Husarz, SINOSU",
    "name": "Losowe ładowanie",
    "type": "Operation"
  },
  {
    "id": 29,
    "statistics": {
      "attack": 3,
      "defence": 1
    },
    "abilities": [
      5
    ],
    "cost": {
      "neutral": 2,
      "raiders": 1,
      "scanners": 0,
      "whiteHats": 0,
      "psychotronnics": 0
    },
    "description": "`Atak wielowektorowy`",
    "name": "Wirus rozproszony",
    "type": "Unit",
    "class": "AI",
    "subclass": "Prześladowca"
  },
  {
    "id": 30,
    "statistics": {
      "attack": 3,
      "defence": 3
    },
    "abilities": [
      8
    ],
    "cost": {
      "neutral": 3,
      "raiders": 1,
      "scanners": 0,
      "whiteHats": 0,
      "psychotronnics": 0
    },
    "description": "`Kontrakcja` zadaj wybranemu graczowi 2 punkty obrażeń",
    "name": "Hystrix",
    "type": "Unit",
    "class": "AI"
  },
  {
    "id": 31,
    "statistics": {
      "attack": 3,
      "defence": 2
    },
    "abilities": [
      1
    ],
    "cost": {
      "neutral": 3,
      "raiders": 1,
      "scanners": 0,
      "whiteHats": 0,
      "psychotronnics": 0
    },
    "description": "`Zawsze czujny`\nJeśli ta jednostka zada obrażenia graczowi możesz zadać 2 punkty obrażeń wybranej jednostce",
    "name": "Ekspert ataków pośrednich",
    "type": "Unit",
    "class": "Haker",
    "subclass": "Prześladowca"
  },
  {
    "id": 32,
    "statistics": {
      "attack": 1,
      "defence": 3
    },
    "abilities": [
      5
    ],
    "cost": {
      "neutral": 2,
      "raiders": 1,
      "scanners": 0,
      "whiteHats": 0,
      "psychotronnics": 0
    },
    "description": "`Atak wielowektorowy`\nJeśli ta jednostka zada obrażenia graczowi dobierz kartę",
    "name": "Googol",
    "type": "Unit",
    "class": "AI"
  },
  {
    "id": 33,
    "cost": {
      "neutral": 7,
      "raiders": 1,
      "scanners": 0,
      "whiteHats": 0,
      "psychotronnics": 0
    },
    "description": "Zmuś do 10 jednostek do walki z jednostką przeciwnika właściciela tej jednostki, właściciel jednostki decyduje z jaką jednostką ona walczy.",
    "name": "Symulacja zagrożeń",
    "type": "Script"
  },
  {
    "id": 34,
    "cost": {
      "neutral": 2,
      "raiders": 1,
      "scanners": 0,
      "whiteHats": 0,
      "psychotronnics": 0
    },
    "description": "Dobierz jedą kartę, możesz zagrać w tej rundzie dodatkowe łącze",
    "name": "Przeładowanie łącz",
    "type": "Operation"
  },
  {
    "id": 35,
    "statistics": {
      "attack": 6,
      "defence": 6
    },
    "cost": {
      "neutral": 3,
      "raiders": 1,
      "scanners": 0,
      "whiteHats": 0,
      "psychotronnics": 0
    },
    "description": "Na poczatku tury zadaj tej jednostce tyle obrażeń od ilu rund znajduje się ona na polu bitwy",
    "name": "overloaded attacker",
    "type": "Unit",
    "subtype": "Legendary",
    "class": "AI",
    "subclass": "Prześladowca"
  },
  {
    "id": 36,
    "cost": {
      "neutral": 5,
      "raiders": 1,
      "scanners": 0,
      "whiteHats": 0,
      "psychotronnics": 0
    },
    "description": "Usuń 3 losowe karty z pola bitwy, jeśli żadna z nich nie należała do właściciela tego działania ponów to działanie",
    "name": "Losowe usuwanie danych",
    "type": "Operation"
  },
  {
    "id": 37,
    "cost": {
      "neutral": 2,
      "raiders": 1,
      "scanners": 0,
      "whiteHats": 0,
      "psychotronnics": 0
    },
    "description": "Wybierz losową jednostkę wroga, zadaj jej 100 punktów obrażeń",
    "name": "Kasowanie pamięci",
    "type": "Script"
  },
  {
    "id": 38,
    "cost": {
      "neutral": 3,
      "raiders": 1,
      "scanners": 0,
      "whiteHats": 0,
      "psychotronnics": 0
    },
    "description": "Umieść po 1 losowej karcie z ręki każdego przeciwnika w cmentarzu właściciela",
    "name": "Przekierowanie danych",
    "type": "Operation"
  },
  {
    "id": 39,
    "cost": {
      "neutral": 2,
      "raiders": 2,
      "scanners": 0,
      "whiteHats": 0,
      "psychotronnics": 0
    },
    "description": "Za każdym razem kiedy otrzymujesz obrażenia, ten program usługa zadaje tyle samo obrażeń losowemu celowi innemu niż ty i twoje jednostki",
    "name": "Feedback neetwork",
    "type": "ServiceProgram"
  },
  {
    "id": 40,
    "cost": {
      "neutral": 3,
      "raiders": 1,
      "scanners": 0,
      "whiteHats": 0,
      "psychotronnics": 0
    },
    "description": "Wybierz kartę, jeśli ta karta zostanie zniszczona, przywróć ją na pole bitwy po twojej stronie, jesli jest jednostką daj jej `Zawsze czujny`, zniszcz ją na koniec twojej następnej tury",
    "name": "Tymczasowe przechwycenie danych",
    "type": "Script"
  },
  {
    "id": 41,
    "statistics": {
      "attack": 4,
      "defence": 3
    },
    "cost": {
      "neutral": 4,
      "raiders": 1,
      "scanners": 0,
      "whiteHats": 0,
      "psychotronnics": 0
    },
    "description": "Kiedy ta jednostka wchodzi na pole bitwy zadaj 3 punkty obrażeń jednostce przeciwnika, albo przeciwnikowi",
    "name": "Metal Meltdown",
    "type": "Unit",
    "class": "Haker"
  },
  {
    "id": 42,
    "cost": {
      "neutral": 6,
      "raiders": 2,
      "scanners": 0,
      "whiteHats": 0,
      "psychotronnics": 0
    },
    "activatedAbilities": [
      {
        "id": 1,
        "description": "Wybierz swoją jednostkę, wybrana jednostka zyskuje +3/+1, ta umiejętność może działać tylko na jedną jednostkę w tym samym czasie",
        "cost": {
          "neutral": 1,
          "raiders": 1,
          "scanners": 0,
          "whiteHats": 0,
          "psychotronnics": 0,
          "overload": 0
        }
      },
      {
        "id": 2,
        "description": "Zadaj 3 punkty obrażeń swojej jednostce i 3 punkty obrażeń jednostce przeciwnika, jeśli nie posiadasz jednostek aktywowanie tej umiejętności nic nie da",
        "cost": {
          "neutral": 2,
          "raiders": 1,
          "scanners": 0,
          "whiteHats": 0,
          "psychotronnics": 0,
          "overload": 1
        }
      },
      {
        "id": 3,
        "description": "Stwórz na polu bitwy losową jednostkę `prześladowcy` albo `kawalerii`",
        "cost": {
          "neutral": 3,
          "raiders": 2,
          "scanners": 0,
          "whiteHats": 0,
          "psychotronnics": 0,
          "overload": 1
        }
      }
    ],
    "description": "Na początku swojej tury dodaj do swojej puli 2 punkty łącza szkoły raiderów",
    "name": "Serwerownia raiderów",
    "type": "ServiceProgram"
  },
  {
    "id": 43,
    "cost": {
      "neutral": 4,
      "raiders": 1,
      "scanners": 0,
      "whiteHats": 0,
      "psychotronnics": 0
    },
    "description": "Zadawaj po jednym punkcie obrażeń losowym jednostkom na polu bitwy tak długo jak nie zniszczysz po jednej jednostce każdego przeciwnego gracza, który posiadał w momencie aktywowania tego skryptu jednostki",
    "name": "Atak propagujący",
    "type": "Script"
  },
  {
    "id": 44,
    "abilities": [
      7
    ],
    "cost": {
      "neutral": 4,
      "raiders": 1,
      "scanners": 0,
      "whiteHats": 0,
      "psychotronnics": 0
    },
    "description": "`Zainstaluj` na jednostce\nJednostka otrzymuje +6/-3, oraz `Atak wielowektorowy`",
    "name": "Przegrzanie",
    "type": "ServiceProgram"
  },
  {
    "id": 45,
    "cost": {
      "neutral": 3,
      "raiders": 2,
      "scanners": 0,
      "whiteHats": 0,
      "psychotronnics": 0
    },
    "activatedAbilities": [
      {
        "id": 1,
        "description": "Zniszcz nie podstawowe łącze przeciwnika, zniszcz tą usługę, możesz umieścić na polu bitwy dowolne łącze z twojej biblioteki",
        "cost": {
          "neutral": 2,
          "raiders": 1,
          "scanners": 0,
          "whiteHats": 0,
          "psychotronnics": 0,
          "overload": 0
        }
      }
    ],
    "description": "",
    "name": "Zagłuszacz łączy",
    "type": "ServiceProgram"
  },
  {
    "id": 46,
    "statistics": {
      "attack": 3,
      "defence": 4
    },
    "abilities": [
      6,
      8
    ],
    "cost": {
      "neutral": 4,
      "raiders": 1,
      "scanners": 0,
      "whiteHats": 0,
      "psychotronnics": 0
    },
    "description": "`Atak segmentowy`\n`Kontrakcja` dobierz kartę",
    "name": "Nameless card 46",
    "type": "Unit",
    "class": "AI"
  },
  {
    "id": 47,
    "statistics": {
      "attack": 5,
      "defence": 4
    },
    "abilities": [
      4,
      5,
      9
    ],
    "cost": {
      "neutral": 5,
      "raiders": 1,
      "scanners": 0,
      "whiteHats": 0,
      "psychotronnics": 0
    },
    "description": "`Atak prewencyjny`\n`Atak wielowektorowy`\n`Ukryty potencjał 3` Przed walką zadaje 3 punkty obrażeń wybranej jednostce",
    "name": "Nameless card 47",
    "type": "Unit",
    "class": "AI",
    "subclass": "Kawaleria"
  },
  {
    "id": 48,
    "cost": {
      "neutral": 5,
      "raiders": 1,
      "scanners": 0,
      "whiteHats": 0,
      "psychotronnics": 0
    },
    "activatedAbilities": [
      {
        "id": 1,
        "description": "Odrzuć kartę\nZadaj pięc punktów obrażeń jednostce na polu bitwy, albo 3 obrażenia graczowi",
        "cost": {
          "neutral": 0,
          "raiders": 1,
          "scanners": 0,
          "whiteHats": 0,
          "psychotronnics": 0,
          "overload": 1
        }
      },
      {
        "id": 2,
        "description": "Odrzuć kartę\nZadaj pięć punkty obrażeń wszystkim celom na polu bitwy",
        "cost": {
          "neutral": 1,
          "raiders": 1,
          "scanners": 0,
          "whiteHats": 0,
          "psychotronnics": 0,
          "overload": 1
        }
      }
    ],
    "description": "",
    "name": "Nameless card 48",
    "type": "ServiceProgram"
  },
  {
    "id": 49,
    "abilities": [
      4,
      10
    ],
    "cost": {
      "neutral": 5,
      "raiders": 1,
      "scanners": 0,
      "whiteHats": 0,
      "psychotronnics": 0
    },
    "description": "`2 punkty łącza Wykorzystanie kodu`\nDaj jednostce +4/+1, `Atak prewencyjny` i `Atak segmentowy` do końca rundy",
    "name": "Procedura penetrująca",
    "type": "Script"
  },
  {
    "id": 50,
    "cost": {
      "neutral": 6,
      "raiders": 1,
      "scanners": 0,
      "whiteHats": 0,
      "psychotronnics": 0
    },
    "activatedAbilities": [
      {
        "id": 1,
        "description": "Wybierz gracza\nWybrany gracz na początku każdej rundy podlega losowo jednemu z poniższych efektów:\n-Nie dobierasz karty\n-Wybiersz jedną ze swoich jednostek i zadaj jej 5 obrażeń\n-Otrzymaj 3 punkty obrażeń\nOdrzuć kartę z ręki\n-Odrzuć pierwszą kartę ze swojej biblioteki\nTen efekt może działać tylko na jednego gracza na raz",
        "cost": {
          "neutral": 2,
          "raiders": 1,
          "scanners": 0,
          "whiteHats": 0,
          "psychotronnics": 0,
          "overload": 0
        }
      }
    ],
    "description": "",
    "name": "Spam serwer",
    "type": "ServiceProgram"
  },
  {
    "id": 51,
    "cost": {
      "neutral": 6,
      "raiders": 1,
      "scanners": 0,
      "whiteHats": 0,
      "psychotronnics": 0
    },
    "description": "Usuń wszystkie jednostki i usługi na polu bitwy i z cmentarzy",
    "name": "Zamazywanie danych",
    "type": "Script"
  },
  {
    "id": 52,
    "cost": {
      "neutral": 5,
      "raiders": 2,
      "scanners": 0,
      "whiteHats": 0,
      "psychotronnics": 0
    },
    "description": "Umieść na polu bitwy dwie losowe usługi szkoły raiderów",
    "name": "Udostępnienie usług",
    "type": "Operation"
  },
  {
    "id": 53,
    "statistics": {
      "attack": 9,
      "defence": 6
    },
    "abilities": [
      1,
      4
    ],
    "cost": {
      "neutral": 4,
      "raiders": 2,
      "scanners": 0,
      "whiteHats": 0,
      "psychotronnics": 0
    },
    "description": "`Zawsze czujny`\n`Atak prewencyjny`\nKiedy zagrywasz tą jednostkę poświęć 3 swoje łącza",
    "name": "Unit 53",
    "type": "Unit",
    "class": "AI",
    "subclass": "Kawaleria"
  },
  {
    "id": 54,
    "cost": {
      "neutral": 2,
      "raiders": 0,
      "scanners": 0,
      "whiteHats": 0,
      "psychotronnics": 1
    },
    "description": "Skontruj kartę",
    "name": "Kontr procedura",
    "type": "Script"
  },
  {
    "id": 55,
    "cost": {
      "neutral": 1,
      "raiders": 0,
      "scanners": 0,
      "whiteHats": 0,
      "psychotronnics": 1
    },
    "description": "Skontruj jednostkę",
    "name": "Blokada materializacji",
    "type": "Script"
  },
  {
    "id": 56,
    "cost": {
      "neutral": 1,
      "raiders": 0,
      "scanners": 0,
      "whiteHats": 0,
      "psychotronnics": 1
    },
    "description": "Skontruj skrypt, albo działanie",
    "name": "Własność stopu",
    "type": "Script"
  },
  {
    "id": 57,
    "cost": {
      "neutral": 3,
      "raiders": 0,
      "scanners": 0,
      "whiteHats": 0,
      "psychotronnics": 2
    },
    "description": "Skontruj skrypt, albo działanie i je zagraj",
    "name": "Przekierowanie strumienia",
    "type": "Script"
  },
  {
    "id": 58,
    "cost": {
      "neutral": 0,
      "raiders": 0,
      "scanners": 0,
      "whiteHats": 0,
      "psychotronnics": 2
    },
    "description": "Skontruj kartę i przywróć ją do ręki właściciela",
    "name": "Timeout",
    "type": "Script"
  },
  {
    "id": 59,
    "cost": {
      "neutral": 0,
      "raiders": 0,
      "scanners": 0,
      "whiteHats": 0,
      "psychotronnics": 1
    },
    "description": "Cofnij jednostkę do ręki właściciela",
    "name": "Restart",
    "type": "Script"
  },
  {
    "id": 60,
    "cost": {
      "neutral": 5,
      "raiders": 0,
      "scanners": 0,
      "whiteHats": 0,
      "psychotronnics": 1
    },
    "description": "Przywróć wszystkie jednostki do rąk ich właścicieli",
    "name": "Zerwanie sieci",
    "type": "Operation"
  },
  {
    "id": 61,
    "cost": {
      "neutral": 3,
      "raiders": 0,
      "scanners": 0,
      "whiteHats": 0,
      "psychotronnics": 1
    },
    "description": "Dobierz trzy karty",
    "name": "Ładowanie zasobów",
    "type": "Script"
  },
  {
    "id": 62,
    "abilities": [
      2
    ],
    "cost": {
      "neutral": 4,
      "raiders": 0,
      "scanners": 0,
      "whiteHats": 0,
      "psychotronnics": 2
    },
    "description": "Na początku swojej tury dobierz dodatkową kartę\nTwoje jednostki z `Głębokim ukryciem` zyskują +1/+1",
    "name": "Baza danych",
    "type": "ServiceProgram"
  },
  {
    "id": 63,
    "cost": {
      "neutral": 8,
      "raiders": 0,
      "scanners": 0,
      "whiteHats": 0,
      "psychotronnics": 1
    },
    "description": "Usuń zawartość cmentarzy, przywróć wszystkie karty na polu bitwy do rąk ich właścicieli, ustaw życia graczy na 20, możesz zagrać w tej rundzie 3 dodatkowe łącza",
    "name": "Rollback",
    "type": "Operation"
  },
  {
    "id": 64,
    "cost": {
      "neutral": 8,
      "raiders": 0,
      "scanners": 0,
      "whiteHats": 0,
      "psychotronnics": 1
    },
    "description": "Nałóż punkt przeciążenia na wszystkie karty swoich przeciwników",
    "name": "Przeciążenie sieci",
    "type": "Script"
  },
  {
    "id": 65,
    "cost": {
      "neutral": 3,
      "raiders": 0,
      "scanners": 0,
      "whiteHats": 0,
      "psychotronnics": 1
    },
    "description": "Wybierz 4 jednostki, jeśli to jednostka przeciwnika nałóż na nią punkt przeciążenia, jeśli to twoja jednostka zdejmij z niej punkt przeciążenia",
    "name": "Kontrola przeciążeń",
    "type": "Script"
  },
  {
    "id": 66,
    "cost": {
      "neutral": 2,
      "raiders": 0,
      "scanners": 0,
      "whiteHats": 0,
      "psychotronnics": 1
    },
    "description": "Nałóż na jednostkę 3 punkty przeciążenia",
    "name": "Przeciążenie",
    "type": "Operation"
  },
  {
    "id": 67,
    "cost": {
      "neutral": 4,
      "raiders": 0,
      "scanners": 0,
      "whiteHats": 0,
      "psychotronnics": 1
    },
    "description": "Przez następne dwie rundy jednostki nie mogą atakować",
    "name": "Przeciążenie buforów",
    "type": "Operation"
  },
  {
    "id": 68,
    "activatedAbilities": [
      {
        "id": 1,
        "description": "Zdobądź punkt mocy obliczeniowej szkoły Psychotroników.",
        "cost": {
          "neutral": 0,
          "raiders": 0,
          "scanners": 0,
          "whiteHats": 0,
          "psychotronnics": 0,
          "overload": 1
        }
      },
      {
        "id": 2,
        "description": "Dobierz kartę",
        "cost": {
          "neutral": 3,
          "raiders": 0,
          "scanners": 0,
          "whiteHats": 0,
          "psychotronnics": 1,
          "overload": 1
        }
      }
    ],
    "description": "Ta karta wchodzi na pole bitwy z nałożonym 1 punktem przeciążenia systemu",
    "name": "Węzeł psychotroników",
    "type": "Link"
  },
  {
    "id": 69,
    "activatedAbilities": [
      {
        "id": 1,
        "description": "Zdobądź punkt mocy obliczeniowej szkoły Psychotroników.",
        "cost": {
          "neutral": 0,
          "raiders": 0,
          "scanners": 0,
          "whiteHats": 0,
          "psychotronnics": 0,
          "overload": 1
        }
      },
      {
        "id": 2,
        "description": "Nałóż dwa punkty przeciążenia na wybraną jednostkę.",
        "cost": {
          "neutral": 2,
          "raiders": 1,
          "scanners": 0,
          "whiteHats": 0,
          "psychotronnics": 0,
          "overload": 3
        }
      },
      {
        "id": 3,
        "description": "Spójrz na 3 karty z góry twojej biblioteki, dobierz wybraną z nich pozostałe dwie przywróć do biblioteki i potasuj ją.",
        "cost": {
          "neutral": 2,
          "raiders": 1,
          "scanners": 0,
          "whiteHats": 0,
          "psychotronnics": 0,
          "overload": 1
        }
      }
    ],
    "description": "Ta karta wchodzi na pole bitwy z nałożonymi 4 punktami przeciążenia systemu.",
    "name": "Centrala psychotroników",
    "type": "Link",
    "subtype": "Legendary"
  },
  {
    "id": 70,
    "cost": {
      "neutral": 0,
      "raiders": 0,
      "scanners": 0,
      "whiteHats": 0,
      "psychotronnics": 1
    },
    "description": "Spójrz na 3 karty z góry twojej biblioteki, dobierz wybraną z nich pozostałe dwie przywróć do biblioteki i potasuj ją.",
    "name": "Selektywne ładowanie",
    "type": "Script"
  },
  {
    "id": 71,
    "cost": {
      "neutral": 1,
      "raiders": 0,
      "scanners": 0,
      "whiteHats": 0,
      "psychotronnics": 1
    },
    "description": "Wybrana jednostka otrzymuje -4/-0",
    "name": "Protokół pacyfikacji",
    "type": "Operation"
  },
  {
    "id": 72,
    "cost": {
      "neutral": 2,
      "raiders": 0,
      "scanners": 0,
      "whiteHats": 0,
      "psychotronnics": 1
    },
    "description": "Wybrana jednostka otrzymuje +0/+5 i `Firewall`",
    "name": "Protokół obronny",
    "type": "Script"
  },
  {
    "id": 73,
    "cost": {
      "neutral": 2,
      "raiders": 0,
      "scanners": 0,
      "whiteHats": 0,
      "psychotronnics": 2
    },
    "description": "Przejmij kontrolę nad jednostką przeciwnika",
    "name": "Nadpisanie uprawnień",
    "type": "Operation"
  },
  {
    "id": 74,
    "cost": {
      "neutral": 3,
      "raiders": 0,
      "scanners": 0,
      "whiteHats": 0,
      "psychotronnics": 2
    },
    "description": "Przejmij kontrolę nad niepodstawowym łączem, albo nad dowolnym łączem jeśli kontrolujesz 10 łączy",
    "name": "Podpięcie do łącza",
    "type": "Operation"
  },
  {
    "id": 75,
    "cost": {
      "neutral": 3,
      "raiders": 0,
      "scanners": 0,
      "whiteHats": 0,
      "psychotronnics": 2
    },
    "description": "Przejmij kontrolę nad usługą",
    "name": "Przejęcie serwera",
    "type": "Operation"
  },
  {
    "id": 76,
    "cost": {
      "neutral": 2,
      "raiders": 0,
      "scanners": 0,
      "whiteHats": 0,
      "psychotronnics": 1
    },
    "description": "Przejmij kontrolę nad atakującą jednostką",
    "name": "Przejęcie systemu rozpoznawania celów",
    "type": "Script"
  },
  {
    "id": 77,
    "cost": {
      "neutral": 3,
      "raiders": 0,
      "scanners": 0,
      "whiteHats": 0,
      "psychotronnics": 1
    },
    "description": "Ukradnij losową kartę z ręki przeciwnika",
    "name": "Podsłuch",
    "type": "Operation"
  },
  {
    "id": 78,
    "cost": {
      "neutral": 1,
      "raiders": 0,
      "scanners": 0,
      "whiteHats": 0,
      "psychotronnics": 1
    },
    "description": "Spójrz na rękę wybranego gracza, gracz umieszcza wybraną kartę na spodzie twojej biblioteki",
    "name": "Kradzież pamięci",
    "type": "Operation"
  },
  {
    "id": 79,
    "cost": {
      "neutral": 0,
      "raiders": 0,
      "scanners": 0,
      "whiteHats": 0,
      "psychotronnics": 1
    },
    "description": "Odkryj ręce wszystkich graczy",
    "name": "Know your enemy",
    "type": "Operation"
  },
  {
    "id": 80,
    "cost": {
      "neutral": 0,
      "raiders": 0,
      "scanners": 0,
      "whiteHats": 0,
      "psychotronnics": 1
    },
    "description": "Spójrz na 10 górnych kart z twojej biblioteki, wybraną z nich połóż na szczycie swojej biblioteki, pozostałe na spodzie w losowej kolejności",
    "name": "Wstępne ładowanie",
    "type": "Script"
  },
  {
    "id": 81,
    "cost": {
      "neutral": 6,
      "raiders": 0,
      "scanners": 0,
      "whiteHats": 0,
      "psychotronnics": 1
    },
    "description": "Skontruj wszystkie wrogie efekty, do końca tej rundy przeciwnicy nie mogą zagrywać skryptów.",
    "name": "Przerwanie procesów",
    "type": "Script"
  },
  {
    "id": 82,
    "cost": {
      "neutral": 6,
      "raiders": 0,
      "scanners": 0,
      "whiteHats": 0,
      "psychotronnics": 1
    },
    "description": "Przejmij kontrolę nad wszystkimi jednostkami z atakiem powyżej 6.",
    "name": "Kontrola silnych sygnatur",
    "type": "Operation"
  },
  {
    "id": 83,
    "cost": {
      "neutral": 5,
      "raiders": 0,
      "scanners": 0,
      "whiteHats": 0,
      "psychotronnics": 1
    },
    "description": "Poświęć dwa swoje łącza, po zakończeniu tej tury, następuje kolejna twoja tura.",
    "name": "Modyfikacja pętli",
    "type": "Operation"
  },
  {
    "id": 84,
    "cost": {
      "neutral": 5,
      "raiders": 0,
      "scanners": 0,
      "whiteHats": 0,
      "psychotronnics": 1
    },
    "description": "Odrzuć kartę, przywróć wszystkie jednostki wybranego gracza do jego ręki.",
    "name": "Selektywne zerwanie sieci",
    "type": "Script"
  },
  {
    "id": 85,
    "statistics": {
      "attack": 7,
      "defence": 8
    },
    "abilities": [
      6
    ],
    "cost": {
      "neutral": 6,
      "raiders": 0,
      "scanners": 0,
      "whiteHats": 0,
      "psychotronnics": 2
    },
    "description": "`Atak segmentowy`\nJeśli ta jednostka zada obrażenia graczowi, ten gracz odrzuca 8 kart ze szczytu swojej biblioteki.",
    "name": "Aleksander",
    "type": "Unit",
    "subtype": "Legendary",
    "class": "True AI"
  },
  {
    "id": 86,
    "cost": {
      "neutral": 7,
      "raiders": 0,
      "scanners": 0,
      "whiteHats": 0,
      "psychotronnics": 1
    },
    "activatedAbilities": [
      {
        "id": 1,
        "description": "Zagraj odkrytą kartę ze szczytu twojej biblioteki płacąc jej koszt(dotyczą jej wszelkie ograniczenia dotyczące grania kart).",
        "cost": {
          "neutral": 0,
          "raiders": 0,
          "scanners": 0,
          "whiteHats": 0,
          "psychotronnics": 0,
          "overload": 1
        }
      }
    ],
    "description": "Na początku twojej fazy głównej odkryj kartę na szczycie twojej biblioteki.",
    "name": "Katalizator kodu",
    "type": "ServiceProgram"
  },
  {
    "id": 87,
    "abilities": [
      7,
      14
    ],
    "cost": {
      "neutral": 0,
      "raiders": 0,
      "scanners": 0,
      "whiteHats": 0,
      "psychotronnics": 1
    },
    "description": "`Zainstaluj` na jednostce\nJednostka otrzymuje +0/+1 i `Odizolowana sieć`",
    "name": "Izolator",
    "type": "ServiceProgram"
  },
  {
    "id": 88,
    "cost": {
      "neutral": 5,
      "raiders": 0,
      "scanners": 0,
      "whiteHats": 0,
      "psychotronnics": 2
    },
    "activatedAbilities": [
      {
        "id": 1,
        "description": "Stwórz kopię wybranej jednostki przeciwnika, każdą jednostkę możesz kopiować tylko raz.",
        "cost": {
          "neutral": 1,
          "raiders": 0,
          "scanners": 0,
          "whiteHats": 0,
          "psychotronnics": 2,
          "overload": 3
        }
      }
    ],
    "description": "",
    "name": "Copycat factory",
    "type": "ServiceProgram"
  },
  {
    "id": 89,
    "cost": {
      "neutral": 1,
      "raiders": 0,
      "scanners": 0,
      "whiteHats": 0,
      "psychotronnics": 1
    },
    "description": "Raz na runde, jeśli twoja jednostka zada obrażenia graczowi dobierz kartę.",
    "name": "Agression booster",
    "type": "ServiceProgram"
  },
  {
    "id": 90,
    "cost": {
      "neutral": 2,
      "raiders": 0,
      "scanners": 0,
      "whiteHats": 0,
      "psychotronnics": 1
    },
    "activatedAbilities": [
      {
        "id": 1,
        "description": "Wybrana jednostka nie może atakować ani bronić w tej turze, nie zadziała na jednostkę która już broni/atakuje.",
        "cost": {
          "neutral": 2,
          "raiders": 0,
          "scanners": 0,
          "whiteHats": 0,
          "psychotronnics": 1,
          "overload": 1
        }
      }
    ],
    "description": "",
    "name": "Peacemaker",
    "type": "ServiceProgram"
  },
  {
    "id": 91,
    "abilities": [
      13
    ],
    "cost": {
      "neutral": 3,
      "raiders": 0,
      "scanners": 0,
      "whiteHats": 0,
      "psychotronnics": 1
    },
    "activatedAbilities": [
      {
        "id": 1,
        "description": "Jednostka traci `Firewall`",
        "cost": {
          "neutral": 3,
          "raiders": 0,
          "scanners": 0,
          "whiteHats": 0,
          "psychotronnics": 1,
          "overload": 2
        }
      }
    ],
    "description": "`Zainstaluj` na jednostce\nJednostka otrzymuje +3/+6 i `Firewall`",
    "name": "Tryb defensywny",
    "type": "ServiceProgram"
  },
  {
    "id": 92,
    "cost": {
      "neutral": 3,
      "raiders": 0,
      "scanners": 0,
      "whiteHats": 0,
      "psychotronnics": 2
    },
    "activatedAbilities": [
      {
        "id": 1,
        "description": "Wybrany gracz nie otrzymuje obrażeń w tej rundzie.",
        "cost": {
          "neutral": 2,
          "raiders": 0,
          "scanners": 0,
          "whiteHats": 0,
          "psychotronnics": 1,
          "overload": 2
        }
      }
    ],
    "description": "Kiedy ta karta wchodzi na pole bitwy zwiększ swoją obronę o 10.",
    "name": "Tryb przetrwania",
    "type": "ServiceProgram"
  },
  {
    "id": 93,
    "statistics": {
      "attack": 1,
      "defence": 1
    },
    "cost": {
      "neutral": 0,
      "raiders": 0,
      "scanners": 0,
      "whiteHats": 0,
      "psychotronnics": 1
    },
    "activatedAbilities": [
      {
        "id": 1,
        "description": "Poświęć tą jednostkę i skontruj skrypt.",
        "cost": {
          "neutral": 0,
          "raiders": 0,
          "scanners": 0,
          "whiteHats": 0,
          "psychotronnics": 1,
          "overload": 0
        }
      }
    ],
    "description": "",
    "name": "Specjalista kontr procedur",
    "type": "Unit",
    "class": "Wsparcie techniczne"
  },
  {
    "id": 94,
    "statistics": {
      "attack": 5,
      "defence": 6
    },
    "abilities": [
      2,
      15
    ],
    "cost": {
      "neutral": 6,
      "raiders": 0,
      "scanners": 0,
      "whiteHats": 0,
      "psychotronnics": 1
    },
    "description": "`Zapasowe zasoby`\n`Głębokie ukrycie`",
    "name": "Mistrz backdoor'ów",
    "type": "Unit",
    "class": "Haker",
    "subclass": "Dark Brotherhood"
  },
  {
    "id": 95,
    "statistics": {
      "attack": 6,
      "defence": 7
    },
    "abilities": [
      13,
      14
    ],
    "cost": {
      "neutral": 5,
      "raiders": 0,
      "scanners": 0,
      "whiteHats": 0,
      "psychotronnics": 1
    },
    "description": "`Firewall`\n`Odizolowana sieć`",
    "name": "Osobisty obrońca",
    "type": "Unit",
    "subtype": "Legendary",
    "class": "AI"
  },
  {
    "id": 96,
    "statistics": {
      "attack": 1,
      "defence": 2
    },
    "abilities": [
      2
    ],
    "cost": {
      "neutral": 1,
      "raiders": 0,
      "scanners": 0,
      "whiteHats": 0,
      "psychotronnics": 1
    },
    "description": "`Głębokie ukrycie`\nKiedy ta ednostka zadaje obrażenia graczowi, nałóż punkt przeciążenia na jedno z jego łącz.",
    "name": "DOS enforcer",
    "type": "Unit",
    "class": "AI",
    "subclass": "Dark Brotherhood"
  },
  {
    "id": 97,
    "statistics": {
      "attack": 2,
      "defence": 3
    },
    "abilities": [
      15,
      16
    ],
    "cost": {
      "neutral": 2,
      "raiders": 0,
      "scanners": 0,
      "whiteHats": 0,
      "psychotronnics": 1
    },
    "activatedAbilities": [
      {
        "id": 1,
        "description": "Ta jednostka wraca do ręki właściciela, wybrana wroga jednostka wraca do ręki własciciela.",
        "cost": {
          "neutral": 3,
          "raiders": 0,
          "scanners": 0,
          "whiteHats": 0,
          "psychotronnics": 1,
          "overload": 0
        }
      }
    ],
    "description": "`Zapasowe zasoby`\n`Zamknięcie portów 2`",
    "name": "Kontroler pamięci",
    "type": "Unit",
    "class": "AI",
    "subclass": "Dark Brotherhood"
  },
  {
    "id": 98,
    "statistics": {
      "attack": 0,
      "defence": 4
    },
    "abilities": [
      13,
      14
    ],
    "cost": {
      "neutral": 1,
      "raiders": 0,
      "scanners": 0,
      "whiteHats": 0,
      "psychotronnics": 2
    },
    "activatedAbilities": [
      {
        "id": 1,
        "description": "Wybrana jednostka zyskuje `Odizolowana sieć`",
        "cost": {
          "neutral": 3,
          "raiders": 0,
          "scanners": 0,
          "whiteHats": 0,
          "psychotronnics": 1,
          "overload": 2
        }
      }
    ],
    "description": "`Firewall`",
    "name": "Audytor bezpieczeństwa",
    "type": "Unit",
    "subtype": "Legendary",
    "class": "Wsparcie techniczne"
  },
  {
    "id": 99,
    "statistics": {
      "attack": 3,
      "defence": 5
    },
    "abilities": [
      2,
      3
    ],
    "cost": {
      "neutral": 2,
      "raiders": 0,
      "scanners": 0,
      "whiteHats": 0,
      "psychotronnics": 2
    },
    "description": "`Materializacja kodu`, `Głębokie ukrycie`",
    "name": "Ghost",
    "type": "Unit",
    "class": "AI",
    "subclass": "Dark Brotherhood"
  },
  {
    "id": 100,
    "statistics": {
      "attack": 1,
      "defence": 4
    },
    "cost": {
      "neutral": 3,
      "raiders": 0,
      "scanners": 0,
      "whiteHats": 0,
      "psychotronnics": 1
    },
    "activatedAbilities": [
      {
        "id": 1,
        "description": "Przywróc losową kartę z twojego cmentarza do ręki.",
        "cost": {
          "neutral": 3,
          "raiders": 0,
          "scanners": 0,
          "whiteHats": 0,
          "psychotronnics": 1,
          "overload": 1
        }
      }
    ],
    "description": "",
    "name": "Miłośnik ponownego wykorzystania kodu",
    "type": "Unit",
    "class": "Haker"
  },
  {
    "id": 101,
    "statistics": {
      "attack": 7,
      "defence": 1
    },
    "abilities": [
      2
    ],
    "cost": {
      "neutral": 4,
      "raiders": 0,
      "scanners": 0,
      "whiteHats": 0,
      "psychotronnics": 1
    },
    "description": "`Głębokie ukrycie`",
    "name": "Shadow",
    "type": "Unit",
    "class": "AI",
    "subclass": "Dark Brotherhood"
  },
  {
    "id": 102,
    "statistics": {
      "attack": 1,
      "defence": 1
    },
    "cost": {
      "neutral": 4,
      "raiders": 0,
      "scanners": 0,
      "whiteHats": 0,
      "psychotronnics": 1
    },
    "description": "Na początku swojej tury ta jednostka otrzymuje +1/+1",
    "name": "Evergrowing",
    "type": "Unit",
    "class": "AI"
  }
]